Colonial Past
…
not_colonized_summary <- not_colonized_ntiles %>% 
  group_by(year, quantileGdp) %>% 
    summarize(gdpPerGroup = sum(gdpPercap),
              meangdpPerGroup = mean(gdpPercap))

## `summarise()` has grouped output by 'year'. You can override using the
## `.groups` argument.

not_colonized_ntiles

## # A tibble: 288 × 9
## # Groups:   year [12]
##    Country Reasonably_Prosperous continent  year lifeExp       pop gdpPercap
##    <chr>   <chr>                 <fct>     <int>   <dbl>     <int>     <dbl>
##  1 Japan   YES                   Asia       1952    63.0  86459025     3217.
##  2 Japan   YES                   Asia       1957    65.5  91563009     4318.
##  3 Japan   YES                   Asia       1962    68.7  95831757     6577.
##  4 Japan   YES                   Asia       1967    71.4 100825279     9848.
##  5 Japan   YES                   Asia       1972    73.4 107188273    14779.
##  6 Japan   YES                   Asia       1977    75.4 113872473    16610.
##  7 Japan   YES                   Asia       1982    77.1 118454974    19384.
##  8 Japan   YES                   Asia       1987    78.7 122091325    22376.
##  9 Japan   YES                   Asia       1992    79.4 124329269    26825.
## 10 Japan   YES                   Asia       1997    80.7 125956499    28817.
## # ℹ 278 more rows
## # ℹ 2 more variables: totalGdp <dbl>, quantileGdp <int>
…
We can also group countries by GDP into quantiles (exactly 5 groupings
from the poorest to the richest) and plot these. It is not super
meaningful chart, but exploring who is in which group at the start and
the end does point to countries’ varied economic (and political)
fortunes.

not_colonized_ntiles

## # A tibble: 288 × 9
## # Groups:   year [12]
##    Country Reasonably_Prosperous continent  year lifeExp       pop gdpPercap
##    <chr>   <chr>                 <fct>     <int>   <dbl>     <int>     <dbl>
##  1 Japan   YES                   Asia       1952    63.0  86459025     3217.
##  2 Japan   YES                   Asia       1957    65.5  91563009     4318.
##  3 Japan   YES                   Asia       1962    68.7  95831757     6577.
##  4 Japan   YES                   Asia       1967    71.4 100825279     9848.
##  5 Japan   YES                   Asia       1972    73.4 107188273    14779.
##  6 Japan   YES                   Asia       1977    75.4 113872473    16610.
##  7 Japan   YES                   Asia       1982    77.1 118454974    19384.
##  8 Japan   YES                   Asia       1987    78.7 122091325    22376.
##  9 Japan   YES                   Asia       1992    79.4 124329269    26825.
## 10 Japan   YES                   Asia       1997    80.7 125956499    28817.
## # ℹ 278 more rows
## # ℹ 2 more variables: totalGdp <dbl>, quantileGdp <int>

# How are the best and worst countries moving economically over the last 60 years?
not_colonized_summary <- not_colonized_ntiles %>% 
    arrange(desc(year)) %>% 
    group_by(year, quantileGdp) %>% 
    summarize(gdpPerGroup = sum(gdpPercap),
              meangdpPerGroup = mean(gdpPercap)) %>% 
   mutate(quantileGdp = as.factor(quantileGdp))

## `summarise()` has grouped output by 'year'. You can override using the
## `.groups` argument.

not_colonized_summary

## # A tibble: 60 × 4
## # Groups:   year [12]
##     year quantileGdp gdpPerGroup meangdpPerGroup
##    <int> <fct>             <dbl>           <dbl>
##  1  1952 1                 2183.            437.
##  2  1952 2                 4443.            889.
##  3  1952 3                 7993.           1998.
##  4  1952 4                20884.           5221.
##  5  1952 5                47684.          11921.
##  6  1957 1                 2510.            502.
##  7  1957 2                 5259.           1052.
##  8  1957 3                 8807.           2202.
##  9  1957 4                26035.           6509.
## 10  1957 5                56021.          14005.
## # ℹ 50 more rows
…
