Kolonisering
…
Filter the five countries that we wish to examine further, namely
Thailand, Vietnam, Indonesia, the Philippines and Malaysia in the data
frame and name it “southeastasia”.

southeastasia <- gapminder_unfiltered%>%
  filter(country%in%c("Thailand","Vietnam","Indonesia","Philippines","Malaysia"))

southeastasia

## # A tibble: 61 × 6
##    country   continent  year lifeExp       pop gdpPercap
##    <fct>     <fct>     <int>   <dbl>     <int>     <dbl>
##  1 Indonesia Asia       1952    37.5  82052000      750.
##  2 Indonesia Asia       1957    39.9  90124000      859.
##  3 Indonesia Asia       1962    42.5  99028000      849.
##  4 Indonesia Asia       1967    46.0 109343000      762.
##  5 Indonesia Asia       1972    49.2 121282000     1111.
##  6 Indonesia Asia       1977    52.7 136725000     1383.
##  7 Indonesia Asia       1982    56.2 153343000     1517.
##  8 Indonesia Asia       1987    60.1 169276000     1748.
##  9 Indonesia Asia       1992    62.7 184816000     2383.
## 10 Indonesia Asia       1997    66.0 199278000     3119.
## # ℹ 51 more rows
…
Separate the four colonial powers, belonging to the colonized
countries from the dataframe “southeastasia”, into a dataframe we name
“colonial powers”.

kolonimagter <- gapminder_unfiltered%>%
  filter(country%in%c("United States","France","Netherlands","United Kingdom"))

kolonimagter

## # A tibble: 185 × 6
##    country continent  year lifeExp      pop gdpPercap
##    <fct>   <fct>     <int>   <dbl>    <int>     <dbl>
##  1 France  Europe     1950    66.4 41828673     6596.
##  2 France  Europe     1951    66.1 42155534     6914.
##  3 France  Europe     1952    67.4 42459667     7030.
##  4 France  Europe     1953    67.3 42751746     7171.
##  5 France  Europe     1954    68.2 43056505     7486.
##  6 France  Europe     1955    68.5 43427669     7852.
##  7 France  Europe     1956    68.5 43843075     8224.
##  8 France  Europe     1957    68.9 44310863     8663.
##  9 France  Europe     1958    70.2 44788852     8855.
## 10 France  Europe     1959    70.2 45239729     9041.
## # ℹ 175 more rows
…
